lab7
…
2b. Numbers of home wins for each team in regular and post season.

Find the number of wins for each team separated by regular season and playoffs using a pipe including the following steps: i. Group your data frame by the variables HomeTeam and Playoffs using group_by() ii. Create a new variable HomeWins (HomePoints > VisitorPoints) using mutate() iii. Create a summary variable NumberOfHomeWins (sum of HomeWins) using summarise() iv. Order the data frame by the variable NumberOfHomeWins in a decreasing order using arrange().

twoB<-nba16 %>% group_by(HomeTeam,Playoffs) %>% mutate(HomeWins=(HomePoints > VisitorPoints)) %>% summarise(NumberOfHomeWins=sum(HomeWins)) %>% arrange(desc((NumberOfHomeWins)))
twoB

## Source: local data frame [46 x 3]
## Groups: HomeTeam [30]
## 
##                  HomeTeam       Playoffs NumberOfHomeWins
##                     <chr>          <chr>            <int>
## 1       San Antonio Spurs Regular Season               40
## 2   Golden State Warriors Regular Season               39
## 3     Cleveland Cavaliers Regular Season               33
## 4   Oklahoma City Thunder Regular Season               32
## 5         Toronto Raptors Regular Season               32
## 6       Charlotte Hornets Regular Season               30
## 7    Los Angeles Clippers Regular Season               29
## 8          Boston Celtics Regular Season               28
## 9              Miami Heat Regular Season               28
## 10 Portland Trail Blazers Regular Season               28
## # ... with 36 more rows
…
